Final Model
…
df

## # A tibble: 50 x 11
##    Rank   Q1     Q2     Q3     Q4    Q5    Q6     Q42   Q43     Q44   Q45  
##    <fct>  <fct>  <fct>  <fct>  <fct> <fct> <fct>  <fct> <fct>   <fct> <fct>
##  1 Exist Public 10,00 < $50 7 - 9 < 10% Black <NA>  1% - 3% $80, Up   
##  2 Exist Public 10,00 < $50 1 - 3 10%  None   <NA>  Spendi < $2 Down 
##  3 Exist Priva 50,00 $1B - 4 - 6 40%  None   30%  Spendi $20, Down 
##  4 Exist Priva < 10, $1B - 4 - 6 30%  Black <NA>  1% - 3% $40, Stay
##  5 Exist Public 10,00 < $50 7 - 9 10%  Other  30%  1% - 3% < $2 Stay
##  6 Exist Public 20,00 < $50 7 - 9 10%  Hands 10%  Spendi $20, Stay
##  7 Exist Priva < 10, < $50 1 - 3 10%  Black 10%  Spendi $60, Stay
##  8 Exist Public < 10, < $50 7 - 9 10%  None   <NA>  Spendi < $2 Stay
##  9 Exist Public 10,00 < $50 4 - 6 20%  Black 10%  5% - 7% $20, Stay
## 10 Exist Public 20,00 $500M 10+   30%  Black <NA>  5% - 7% $60, Up   
## #  with 40 more rows

# remove non-collectible variables for prediction purposes
sub_data <- df %>% 
  dplyr::select(Q44, Rank, Q1, Q2, Q3, Q4)
sub_data <- na.omit(sub_data) #remove NAs
sub_data

## # A tibble: 38 x 6
##    Q44                Rank     Q1      Q2              Q3          Q4   
##    <fct>              <fct>    <fct>   <fct>           <fct>       <fct>
##  1 $80,000 - $100,000 Existing Public  10,000 - 20,000 < $500M     7 - 9
##  2 < $20,000          Existing Public  10,000 - 20,000 < $500M     1 - 3
##  3 $20,000 - $40,000  Existing Private 50,000+         $1B - $5B   4 - 6
##  4 $40,000 - $60,000  Existing Private < 10,000        $1B - $5B   4 - 6
##  5 < $20,000          Existing Public  10,000 - 20,000 < $500M     7 - 9
##  6 $20,000 - $40,000  Existing Public  20,000 - 30,000 < $500M     7 - 9
##  7 $60,000 - $80,000  Existing Private < 10,000        < $500M     1 - 3
##  8 < $20,000          Existing Public  < 10,000        < $500M     7 - 9
##  9 $20,000 - $40,000  Existing Public  10,000 - 20,000 < $500M     4 - 6
## 10 $60,000 - $80,000  Existing Public  20,000 - 30,000 $500M - $1B 10+  
## #  with 28 more rows
…
data

## # A tibble: 38 x 5
##    spending numRank pop_size endowment schools
##       <dbl>   <dbl>    <dbl>     <dbl>   <dbl>
##  1    90000     150    15000       250       8
##  2    10000     150    15000       250       2
##  3    30000     150    75000      2500       5
##  4    50000     150     5000      2500       5
##  5    10000     150    15000       250       8
##  6    30000     150   250000       250       8
##  7    70000     150     5000       250       2
##  8    10000     150     5000       250       8
##  9    30000     150    15000       250       5
## 10    70000     150   250000       750      11
## #  with 28 more rows
…
